<svg width="31" height="25" viewBox="0 0 31 25" fill="none" xmlns="http://www.w3.org/2000/svg">
<path d="M27.8093 0H5.06528C3.3589 0.000724284 1.97579 1.38384 1.97506 3.09021V12.8058C-0.0994859 15.0011 -0.59054 18.2547 0.743805 20.9642C2.07815 23.6739 4.95639 25.2685 7.96115 24.9627C10.9659 24.6568 13.4639 22.5149 14.2246 19.592H27.8093C29.5156 19.5915 30.899 18.2081 30.8995 16.5017V3.09021C30.899 1.38384 29.5156 0.000724284 27.8093 0ZM3.21115 5.56239H29.6634V8.28177H3.21115V5.56239ZM5.06528 1.23609H27.8093C28.8322 1.23898 29.6605 2.06755 29.6634 3.09021V4.3263H3.21115V3.09021C3.21211 2.06658 4.04164 1.23681 5.06528 1.23609ZM7.22843 23.7577C3.91755 23.7577 1.23341 21.0736 1.23341 17.7627C1.23341 14.4516 3.91755 11.7677 7.22843 11.7677C10.5395 11.7677 13.2234 14.4516 13.2234 17.7627C13.2203 21.0721 10.5381 23.7546 7.22843 23.7577ZM27.8093 18.3559H14.4349C14.4535 18.1644 14.4595 17.9665 14.4595 17.7687C14.4619 15.0996 12.9926 12.6467 10.6383 11.3894C8.28393 10.132 5.42814 10.275 3.21115 11.7614V9.51786H29.6634V16.5017C29.6605 17.5247 28.8322 18.353 27.8093 18.3559Z" fill="#2A273D"/>
<path d="M24.7499 11.8913C23.8412 11.8911 23.0078 12.3961 22.5868 13.2015C22.066 12.2054 20.9326 11.6936 19.8411 11.9615C18.7496 12.2298 17.9821 13.2085 17.9821 14.3326C17.9821 15.4564 18.7496 16.4351 19.8411 16.7033C20.9326 16.9713 22.066 16.4595 22.5868 15.4634C23.1418 16.5249 24.3847 17.0268 25.521 16.6488C26.6574 16.2707 27.3518 15.1242 27.1601 13.9419C26.9686 12.7597 25.9476 11.8911 24.7499 11.8913ZM20.4236 15.5377C19.9357 15.5375 19.4959 15.2432 19.3097 14.7922C19.1236 14.341 19.2276 13.8222 19.5736 13.4782C19.9198 13.1339 20.4391 13.0323 20.8891 13.2208C21.3394 13.4094 21.6315 13.8507 21.6288 14.3386C21.6269 15.0023 21.0876 15.539 20.4236 15.5377ZM24.7499 15.5377C24.262 15.5375 23.8222 15.2432 23.636 14.7922C23.4499 14.341 23.5539 13.8222 23.8999 13.4782C24.2461 13.1339 24.7654 13.0323 25.2154 13.2208C25.6657 13.4094 25.9578 13.8507 25.9551 14.3386C25.9532 15.0023 25.4139 15.539 24.7499 15.5377Z" fill="#2A273D"/>
<path d="M7.22842 15.0184C7.79818 15.0194 8.25954 15.481 8.26051 16.0505C8.26051 16.3919 8.53742 16.6686 8.87855 16.6686C9.21992 16.6686 9.49659 16.3919 9.49659 16.0505C9.49539 15.0365 8.82206 14.1462 7.84647 13.869V13.4982C7.84647 13.1568 7.5698 12.8802 7.22842 12.8802C6.88705 12.8802 6.61038 13.1568 6.61038 13.4982V13.869C5.52132 14.1773 4.82626 15.2418 4.98198 16.3629C5.1377 17.4841 6.09639 18.3189 7.22842 18.3189C7.79842 18.3189 8.26051 18.781 8.26051 19.351C8.26051 19.921 7.79842 20.3831 7.22842 20.3831C6.65842 20.3831 6.19634 19.921 6.19634 19.351C6.19634 19.0096 5.91967 18.733 5.5783 18.733C5.23693 18.733 4.96025 19.0096 4.96025 19.351C4.96146 20.365 5.63503 21.2554 6.61038 21.5328V22.0332C6.61038 22.3746 6.88705 22.6513 7.22842 22.6513C7.5698 22.6513 7.84647 22.3746 7.84647 22.0332V21.5328C8.93577 21.2242 9.63058 20.1598 9.47486 19.0386C9.31915 17.9174 8.36046 17.0826 7.22842 17.0828C6.65842 17.0828 6.19634 16.6205 6.19634 16.0505C6.19634 15.4805 6.65842 15.0184 7.22842 15.0184Z" fill="#2A273D"/>
</svg>
