<svg width="23" height="19" viewBox="0 0 23 19" fill="none" xmlns="http://www.w3.org/2000/svg">
<path d="M20.6998 0H3.77034C2.50019 0.000539121 1.47068 1.03006 1.47014 2.3002V9.53199C-0.0740522 11.166 -0.439568 13.5879 0.55365 15.6047C1.54687 17.6217 3.68929 18.8086 5.92587 18.5809C8.16246 18.3533 10.0218 16.7589 10.5881 14.5833H20.6998C21.9699 14.5829 22.9996 13.5532 23 12.2831V2.3002C22.9996 1.03006 21.9699 0.000539121 20.6998 0ZM2.39022 4.14036H22.0799V6.16453H2.39022V4.14036ZM3.77034 0.92008H20.6998C21.4612 0.922236 22.0778 1.53898 22.0799 2.3002V3.22028H2.39022V2.3002C2.39093 1.53826 3.00839 0.920619 3.77034 0.92008ZM5.38047 17.684C2.91603 17.684 0.918088 15.6861 0.918088 13.2217C0.918088 10.757 2.91603 8.75926 5.38047 8.75926C7.8451 8.75926 9.84286 10.757 9.84286 13.2217C9.84052 15.685 7.84402 17.6817 5.38047 17.684ZM20.6998 13.6632H10.7446C10.7584 13.5207 10.7629 13.3733 10.7629 13.2261C10.7647 11.2393 9.67106 9.41356 7.9186 8.47767C6.16614 7.54178 4.04043 7.64816 2.39022 8.75459V7.08461H22.0799V12.2831C22.0778 13.0445 21.4612 13.661 20.6998 13.6632Z" fill="#DADADA"/>
<path d="M18.4226 8.85124C17.7462 8.85106 17.1259 9.227 16.8125 9.82649C16.4249 9.08504 15.5812 8.70407 14.7687 8.90354C13.9563 9.10319 13.385 9.8317 13.385 10.6684C13.385 11.5049 13.9563 12.2334 14.7687 12.4331C15.5812 12.6326 16.4249 12.2516 16.8125 11.5101C17.2256 12.3003 18.1508 12.6739 18.9966 12.3925C19.8425 12.1111 20.3593 11.2576 20.2166 10.3776C20.0741 9.49764 19.3141 8.85106 18.4226 8.85124ZM15.2024 11.5655C14.8392 11.5653 14.5118 11.3462 14.3732 11.0106C14.2347 10.6747 14.3121 10.2885 14.5696 10.0324C14.8273 9.77618 15.2139 9.70052 15.5488 9.84087C15.884 9.98122 16.1014 10.3097 16.0994 10.6729C16.098 11.1669 15.6965 11.5664 15.2024 11.5655ZM18.4226 11.5655C18.0595 11.5653 17.732 11.3462 17.5935 11.0106C17.4549 10.6747 17.5324 10.2885 17.7899 10.0324C18.0476 9.77618 18.4341 9.70052 18.7691 9.84087C19.1043 9.98122 19.3217 10.3097 19.3197 10.6729C19.3183 11.1669 18.9168 11.5664 18.4226 11.5655Z" fill="#DADADA"/>
<path d="M5.38044 11.179C5.80454 11.1797 6.14795 11.5233 6.14867 11.9472C6.14867 12.2013 6.35479 12.4072 6.60871 12.4072C6.86281 12.4072 7.06875 12.2013 7.06875 11.9472C7.06785 11.1924 6.56666 10.5297 5.84048 10.3234V10.0474C5.84048 9.79328 5.63454 9.58734 5.38044 9.58734C5.12634 9.58734 4.9204 9.79328 4.9204 10.0474V10.3234C4.10976 10.5529 3.5924 11.3452 3.70831 12.1797C3.82421 13.0143 4.53781 13.6357 5.38044 13.6357C5.80472 13.6357 6.14867 13.9796 6.14867 14.4039C6.14867 14.8282 5.80472 15.1722 5.38044 15.1722C4.95616 15.1722 4.61221 14.8282 4.61221 14.4039C4.61221 14.1498 4.40627 13.9439 4.15217 13.9439C3.89807 13.9439 3.69213 14.1498 3.69213 14.4039C3.69303 15.1587 4.1944 15.8214 4.9204 16.0279V16.4004C4.9204 16.6545 5.12634 16.8605 5.38044 16.8605C5.63454 16.8605 5.84048 16.6545 5.84048 16.4004V16.0279C6.6513 15.7982 7.16849 15.0059 7.05258 14.1714C6.93667 13.3368 6.22307 12.7154 5.38044 12.7156C4.95616 12.7156 4.61221 12.3715 4.61221 11.9472C4.61221 11.5229 4.95616 11.179 5.38044 11.179Z" fill="#DADADA"/>
</svg>
