<?xml version="1.0" encoding="utf-8"?>
<!-- Generator: Adobe Illustrator 22.1.0, SVG Export Plug-In . SVG Version: 6.00 Build 0)  -->
<svg version="1.1" id="Layer_1" xmlns="http://www.w3.org/2000/svg" xmlns:xlink="http://www.w3.org/1999/xlink" x="0px" y="0px"
	 viewBox="0 0 53 36" style="enable-background:new 0 0 53 36;" xml:space="preserve">
<style type="text/css">
	.st0{fill:url(#SVGID_1_);}
	.st1{fill:url(#SVGID_2_);}
	.st2{fill:url(#SVGID_3_);}
	.st3{fill:url(#SVGID_4_);}
	.st4{fill:url(#SVGID_5_);}
	.st5{fill:url(#SVGID_6_);stroke:#FCFCFC;stroke-miterlimit:10;}
	.st6{fill:#FFFFFF;}
	.st7{fill:#2A292B;}
	.st8{fill:url(#path0_3_);stroke:#FCFCFC;stroke-miterlimit:10;}
	.st9{fill:url(#path0_4_);stroke:#FCFCFC;stroke-miterlimit:10;}
	.st10{fill:url(#SVGID_7_);stroke:#FCFCFC;stroke-miterlimit:10;}
	.st11{fill:url(#SVGID_8_);}
	.st12{fill:url(#SVGID_9_);}
	.st13{fill:url(#SVGID_10_);}
	.st14{fill:none;stroke:#FABC2F;stroke-width:3;}
	.st15{fill:none;stroke:#FFFFFF;stroke-width:3;}
	.st16{fill:url(#SVGID_11_);}
	.st17{fill:#FABD30;stroke:#FBB03B;}
	.st18{fill:#FFFFFF;stroke:#FFFFFF;}
	.st19{fill:url(#SVGID_12_);}
	.st20{fill:url(#SVGID_13_);}
	.st21{fill:url(#SVGID_14_);}
	.st22{fill:#2A273D;}
	.st23{fill:url(#SVGID_15_);}
	.st24{fill:url(#SVGID_16_);}
	.st25{fill:url(#SVGID_17_);}
	.st26{fill:url(#SVGID_18_);}
	.st27{fill:url(#SVGID_19_);}
	.st28{fill:url(#SVGID_20_);}
	.st29{fill:url(#SVGID_21_);}
	.st30{fill:url(#SVGID_22_);}
	.st31{fill:url(#SVGID_23_);}
	.st32{fill:url(#SVGID_24_);}
	.st33{fill:#FAC235;stroke:#FABC2F;stroke-width:0.5;}
	.st34{fill:url(#SVGID_25_);}
	.st35{fill:#26B999;}
	.st36{fill:url(#SVGID_26_);}
	.st37{fill:#FBB03B;}
	.st38{fill:url(#SVGID_27_);}
	.st39{fill:url(#SVGID_28_);}
	.st40{fill:url(#SVGID_29_);}
	.st41{fill:url(#SVGID_30_);}
	.st42{fill:url(#SVGID_31_);}
	.st43{fill:url(#SVGID_32_);}
	.st44{fill:url(#SVGID_33_);}
	.st45{fill:url(#SVGID_34_);}
	.st46{fill:url(#SVGID_35_);}
	.st47{fill:#FABC2F;}
	.st48{fill:#FAFAFA;}
	.st49{fill:#3D324C;}
	.st50{fill:#FAC235;}
	.st51{fill:url(#SVGID_36_);}
	.st52{fill:url(#SVGID_37_);}
	.st53{fill:url(#SVGID_38_);}
	.st54{fill:url(#SVGID_39_);}
	.st55{fill:url(#SVGID_40_);}
	.st56{fill:url(#SVGID_41_);stroke:#FCFCFC;stroke-miterlimit:10;}
	.st57{fill:url(#SVGID_42_);}
	.st58{fill:url(#SVGID_43_);}
	.st59{fill:url(#SVGID_44_);}
	.st60{fill:url(#SVGID_45_);}
	.st61{fill:url(#SVGID_46_);}
	.st62{fill:url(#SVGID_47_);stroke:#FCFCFC;stroke-miterlimit:10;}
	.st63{fill:url(#path0_6_);stroke:#FCFCFC;stroke-miterlimit:10;}
	.st64{fill:url(#path0_7_);stroke:#FCFCFC;stroke-miterlimit:10;}
	.st65{fill:url(#SVGID_48_);stroke:#FCFCFC;stroke-miterlimit:10;}
</style>
<path class="st14" d="M3,14l18.1,18L51,2.4"/>
</svg>
