<svg width="3" height="15" viewBox="0 0 3 15" fill="none" xmlns="http://www.w3.org/2000/svg">
<rect width="3" height="3" rx="1" fill="#DADADA"/>
<rect y="6" width="3" height="3" rx="1" fill="#DADADA"/>
<rect y="12" width="3" height="3" rx="1" fill="#DADADA"/>
</svg>
