<svg width="26" height="28" viewBox="0 0 26 28" fill="none" xmlns="http://www.w3.org/2000/svg">
<path d="M13 28C5.83188 28 0 21.7195 0 14C0 6.28049 5.83188 0 13 0C20.1681 0 26 6.28049 26 14C26 21.7195 20.1681 28 13 28ZM13 0.848485C6.266 0.848485 0.787879 6.748 0.787879 14C0.787879 21.252 6.266 27.1515 13 27.1515C19.734 27.1515 25.2121 21.252 25.2121 14C25.2121 6.748 19.734 0.848485 13 0.848485Z" fill="white"/>
<path d="M13 28C10.2936 28 7.69283 27.1023 5.47652 25.4036C5.35834 25.3128 5.29531 25.1576 5.31422 25.0023C5.33313 24.847 5.43083 24.7147 5.56792 24.6604C8.83446 23.3579 9.36155 22.3007 9.36155 20.2745C9.36155 19.7391 9.24968 19.5635 9.04798 19.2445C8.78089 18.8253 8.41531 18.2509 8.15846 16.7508C8.12064 16.5353 8.08834 16.5183 7.90949 16.425C7.43204 16.1772 6.99319 15.8208 6.87816 14.1951C6.87816 13.4078 7.13028 12.9725 7.33907 12.7459C7.29337 12.4659 7.21852 11.9831 7.1484 11.4571C6.79149 9.10085 6.77574 6.21515 9.85319 4.87369C12.5351 3.70278 14.6758 4.34254 15.3479 5.10533C15.8237 5.12145 17.0513 5.25551 17.9053 6.32545C19.2195 7.97151 18.8011 11.7244 18.6577 12.7417C18.8673 12.9631 19.1218 13.3925 19.1218 14.1629C19.0068 15.8208 18.5679 16.1781 18.0897 16.425C17.91 16.5183 17.8777 16.5344 17.8407 16.7508C17.5839 18.2509 17.2191 18.8253 16.952 19.2445C16.7495 19.5627 16.6384 19.7391 16.6384 20.2745C16.6384 22.3007 17.1655 23.3579 20.432 24.6604C20.5691 24.7147 20.6668 24.8462 20.6857 25.0023C20.7046 25.1584 20.6416 25.3128 20.5234 25.4036C18.3071 27.1023 15.7063 28 13 28ZM6.55277 25.1584C8.49252 26.4651 10.7065 27.1515 13 27.1515C15.2935 27.1515 17.5074 26.4651 19.4472 25.1584C16.7101 23.9485 15.8505 22.7284 15.8505 20.2754C15.8505 19.477 16.0696 19.1316 16.302 18.7659C16.5415 18.3892 16.8393 17.9208 17.067 16.5972C17.1765 15.9575 17.5208 15.7793 17.7485 15.6613C17.9936 15.5349 18.2457 15.4042 18.3347 14.1315C18.3339 13.4833 18.0637 13.3068 18.0526 13.3C17.9077 13.2101 17.8139 13.0208 17.8446 12.8444C18.04 11.7167 18.3615 8.19975 17.3081 6.87866C16.5888 5.97757 15.455 5.95297 15.2391 5.9623C15.2029 5.95891 15.1674 5.95806 15.1336 5.94872C15.0311 5.92072 14.8578 5.82484 14.805 5.72642C14.5907 5.33103 12.7242 4.536 10.1486 5.65854C7.60301 6.76836 7.59749 9.14751 7.92761 11.3281C8.03634 12.1401 8.15531 12.8418 8.1561 12.8452C8.1884 13.0361 8.09622 13.2262 7.93313 13.3068C7.93549 13.3068 7.66604 13.4841 7.66604 14.1621C7.75428 15.4017 8.00719 15.5332 8.25143 15.6596C8.47913 15.7776 8.82422 15.9558 8.93374 16.5955C9.16064 17.9191 9.45846 18.3875 9.69798 18.7642C9.93119 19.1299 10.1502 19.4753 10.1502 20.2737C10.1502 22.7292 9.29065 23.9493 6.55277 25.1584Z" fill="white"/>
</svg>
