<svg width="97" height="97" viewBox="0 0 97 97" fill="none" xmlns="http://www.w3.org/2000/svg">
<path d="M95.8794 36.7931L96.2975 36.2579L97 36.7931V93.6552C96.9945 95.5003 95.5001 96.9945 93.6552 97H3.34479C1.4999 96.9945 0.00549413 95.5001 0 93.6552V36.7931L0.702491 36.2579L1.12061 36.7931H95.8794Z" fill="#1D6AAA"/>
<path d="M96.2973 36.2579L95.8792 36.7931L50.1724 71.9137H46.8276L1.12039 36.7931L0.702271 36.2579L16.7239 23.7984L38.7664 6.68963L46.4761 0.70235C47.6627 -0.234117 49.3369 -0.234117 50.5234 0.70235L58.2332 6.68963L80.2757 23.7984L96.2973 36.2579Z" fill="#1D6AAA"/>
<path d="M80.2757 10.0344V48.7841L50.1724 71.9137H46.8276L16.7241 48.7843V10.0344C16.7296 8.18928 18.224 6.69507 20.0689 6.68958H76.9309C78.776 6.69507 80.2702 8.18947 80.2757 10.0344Z" fill="#FAFAFA"/>
<path d="M31.7758 20.069H65.224C66.1476 20.069 66.8965 19.3203 66.8965 18.3965C66.8965 17.4729 66.1478 16.724 65.224 16.724H31.7758C30.8522 16.724 30.1033 17.4727 30.1033 18.3965C30.1035 19.3203 30.8522 20.069 31.7758 20.069Z" fill="#3D324C"/>
<path d="M65.224 26.7585H31.7758C30.8522 26.7585 30.1033 27.5073 30.1033 28.431C30.1033 29.3548 30.852 30.1035 31.7758 30.1035H65.224C66.1476 30.1035 66.8965 29.3548 66.8965 28.431C66.8965 27.5073 66.1476 26.7585 65.224 26.7585Z" fill="#3D324C"/>
<path d="M65.224 36.7931H50.1724C49.2488 36.7931 48.4999 37.5418 48.4999 38.4656C48.4999 39.3894 49.2486 40.1381 50.1724 40.1381H65.224C66.1476 40.1381 66.8965 39.3894 66.8965 38.4656C66.8965 37.5418 66.1476 36.7931 65.224 36.7931Z" fill="#3D324C"/>
<path d="M96.3476 95.6286C95.7233 96.4927 94.7209 97.003 93.6551 97H3.34485C2.2788 97.0032 1.27659 96.4927 0.652344 95.6286L38.9673 65.8763L46.4764 60.0396C47.663 59.1032 49.3372 59.1032 50.5237 60.0396L58.0328 65.8763L96.3476 95.6286Z" fill="#FAC235"/>
</svg>
